…
Die Variable `main_blocks_loop.thisN` ist die Trialnummer. Diese können wir verwenden, um die Zeilen auszuschliessen, die nicht zum Main Block gehören.


::: {.cell hash='02_importing_data_cache/html/unnamed-chunk-7_99d899725d0cbb23cce786dba6f54180'}

```{.r .cell-code}
testdata |> 
    filter(!is.na(main_blocks_loop.thisN)) |>
    select(-contains("practice_block_loop"))
```

::: {.cell-output .cell-output-stdout}
```
# A tibble: 160 × 35
   cue   direction main_blocks_loop.thisRepN main_blocks_loop.… main_blocks_loo…
   <chr> <chr>                         <dbl>              <dbl>            <dbl>
 1 right right                             0                  0                0
 2 right right                             0                  1                1
 3 none  right                             0                  2                2
 4 none  right                             0                  3                3
 5 left  left                              0                  4                4
 6 none  right                             0                  5                5
 7 none  left                              0                  6                6
 8 left  left                              0                  7                7
 9 left  right                             0                  8                8
10 none  right                             0                  9                9
# … with 150 more rows, and 30 more variables:
#   main_blocks_loop.thisIndex <dbl>, static_isi.started <dbl>,
#   static_isi.stopped <dbl>, fixation_pre.started <dbl>,
#   fixation_pre.stopped <chr>, image.started <dbl>, image.stopped <chr>,
#   fixation_post.started <dbl>, fixation_post.stopped <chr>,
#   dots_background.started <dbl>, dots_background.stopped <chr>,
#   dots_stimulus.started <dbl>, dots_stimulus.stopped <chr>, …
```
…
::: {.cell hash='02_importing_data_cache/html/unnamed-chunk-8_b643a7ce32285ee43c1b1e6cc9682975'}

```{.r .cell-code}
testdata |>
    select(-contains("static"),
           -contains("fixation"),
           -contains("image"),
           -contains("instruction"),
           -contains("feedback"))
```

::: {.cell-output .cell-output-stdout}
```
# A tibble: 167 × 23
   cue   direction practice_block_loop.thisRe… practice_block_… practice_block_…
   <chr> <chr>                           <dbl>            <dbl>            <dbl>
 1 none  right                               0                0                0
 2 left  right                               0                1                1
 3 right right                               0                2                2
 4 left  left                                0                3                3
 5 none  left                                0                4                4
 6 right left                                0                5                5
 7 <NA>  <NA>                               NA               NA               NA
 8 right right                              NA               NA               NA
 9 right right                              NA               NA               NA
10 none  right                              NA               NA               NA
# … with 157 more rows, and 18 more variables:
#   practice_block_loop.thisIndex <dbl>, main_blocks_loop.thisRepN <dbl>,
#   main_blocks_loop.thisTrialN <dbl>, main_blocks_loop.thisN <dbl>,
#   main_blocks_loop.thisIndex <dbl>, dots_background.started <dbl>,
#   dots_background.stopped <chr>, dots_stimulus.started <dbl>,
#   dots_stimulus.stopped <chr>, dots_keyboard_response.keys <chr>,
#   dots_keyboard_response.started <dbl>, …
```
…
::: {.cell hash='02_importing_data_cache/html/unnamed-chunk-10_5cb15a7c7b637a10294801543bb15b6f'}

```{.r .cell-code}
testdata
```

::: {.cell-output .cell-output-stdout}
```
# A tibble: 167 × 23
   cue   direction practice_block_loop.thisRe… practice_block_… practice_block_…
   <chr> <chr>                           <dbl>            <dbl>            <dbl>
 1 none  right                               0                0                0
 2 left  right                               0                1                1
 3 right right                               0                2                2
 4 left  left                                0                3                3
 5 none  left                                0                4                4
 6 right left                                0                5                5
 7 <NA>  <NA>                               NA               NA               NA
 8 right right                              NA               NA               NA
 9 right right                              NA               NA               NA
10 none  right                              NA               NA               NA
# … with 157 more rows, and 18 more variables:
#   practice_block_loop.thisIndex <dbl>, main_blocks_loop.thisRepN <dbl>,
#   main_blocks_loop.thisTrialN <dbl>, main_blocks_loop.thisN <dbl>,
#   main_blocks_loop.thisIndex <dbl>, dots_background.started <dbl>,
#   dots_background.stopped <chr>, dots_stimulus.started <dbl>,
#   dots_stimulus.stopped <chr>, dots_keyboard_response.keys <chr>,
#   dots_keyboard_response.started <dbl>, …
```
…
::: {.cell hash='02_importing_data_cache/html/unnamed-chunk-12_a37a53ec62d0a94e899f2a1bb1ee2f04'}

```{.r .cell-code}
testdata
```

::: {.cell-output .cell-output-stdout}
```
# A tibble: 167 × 6
   trial ID    cue   direction response     rt
   <dbl> <chr> <chr> <chr>     <chr>     <dbl>
 1    NA ZZ    none  right     None     NA    
 2    NA ZZ    left  right     f         0.934
 3    NA ZZ    right right     j         0.849
 4    NA ZZ    left  left      f         0.940
 5    NA ZZ    none  left      None     NA    
 6    NA ZZ    right left      f         0.749
 7    NA ZZ    <NA>  <NA>      <NA>     NA    
 8     0 ZZ    right right     j         0.714
 9     1 ZZ    right right     j         0.627
10     2 ZZ    none  right     f         0.670
# … with 157 more rows
```
…
::: {.cell hash='02_importing_data_cache/html/unnamed-chunk-37_f4e3b811e17db51d0723dbb862c66fda'}

```{.r .cell-code}
accuracy
```

::: {.cell-output .cell-output-stdout}
```
# A tibble: 27 × 5
# Groups:   ID [9]
   ID    condition     N ncorrect accuracy
   <fct> <fct>     <int>    <dbl>    <dbl>
 1 JH    invalid      16       13   0.812 
 2 JH    neutral      80       66   0.825 
 3 JH    valid        64       60   0.938 
 4 NS    invalid      16       11   0.688 
 5 NS    neutral      80       56   0.7   
 6 NS    valid        64       58   0.906 
 7 rh    invalid      16        2   0.125 
 8 rh    neutral      80       64   0.8   
 9 rh    valid        64       61   0.953 
10 sb    invalid      16        1   0.0625
# … with 17 more rows
```
…
