Neurowissenschaft Computerlab - Daten importieren: Teil 1
…
Variablen auswählen

Die folgenden Variablen enthalten Informationen zu den Inter-Trial Intervallen, Fixationskreuzen, Feedback, etc, und sind für uns an dieser Stelle nicht interessant.

testdata |>
    select(contains("static"),
           contains("fixation"),
           contains("image"),
           contains("instruction"),
           contains("feedback"))

# A tibble: 160 × 16
   static_isi.…¹ stati…² fixat…³ fixat…⁴ fixat…⁵ fixat…⁶ image…⁷ image…⁸ instr…⁹
           <dbl>   <dbl>   <dbl> <chr>     <dbl> <chr>     <dbl> <chr>     <dbl>
 1        0.0160    2.02    86.5 None       87.9 None       86.9 None         NA
 2        0.0318    2.03    96.2 None       97.6 None       96.5 None         NA
 3        0.0321    2.03   105.  None      106.  None      105.  None         NA
 4        0.0321    2.03   114.  None      116.  None      115.  None         NA
 5        0.0321    2.03   123.  None      125.  None      124.  None         NA
 6        0.0321    2.03   133.  None      135.  None      134.  None         NA
 7        0.0321    2.03   142.  None      144.  None      143.  None         NA
 8        0.0321    2.03   152.  None      154.  None      153.  None         NA
 9        0.0321    2.03   161.  None      163.  None      162.  None         NA
10        0.0321    2.03   172.  None      173.  None      172.  None         NA
# … with 150 more rows, 7 more variables: instruction_main_text.stopped <chr>,
#   instruction_main_keyboard_response.keys <chr>,
#   instruction_main_keyboard_response.rt <dbl>,
#   instruction_main_keyboard_response.started <dbl>,
#   instruction_main_keyboard_response.stopped <chr>,
#   feedback_text.started <dbl>, feedback_text.stopped <chr>, and abbreviated
#   variable names ¹​static_isi.started, ²​static_isi.stopped, …

Mit select können wir alle Variablen ausser diesen auswählen.

testdata <- testdata |>
    select(-contains("static"),
           -contains("fixation"),
           -contains("image"),
           -contains("instruction"),
           -contains("feedback"))

testdata

# A tibble: 160 × 19
   cue   direc…¹ main_…² main_…³ main_…⁴ main_…⁵ dots_…⁶ dots_…⁷ dots_…⁸ dots_…⁹
   <chr> <chr>     <dbl>   <dbl>   <dbl>   <dbl>   <dbl> <chr>     <dbl> <chr>  
 1 right right         0       0       0      18    92.9 None       92.9 None   
 2 right right         0       1       1      31   102.  None      102.  None   
 3 none  right         0       2       2      66   111.  None      111.  None   
 4 none  right         0       3       3      75   120.  None      120.  None   
 5 left  left          0       4       4      13   129.  None      129.  None   
 6 none  right         0       5       5      62   139.  None      139.  None   
 7 none  left          0       6       6      41   148.  None      148.  None   
 8 left  left          0       7       7      15   158.  None      158.  None   
 9 left  right         0       8       8      32   168.  None      168.  None   
10 none  right         0       9       9      68   178.  None      178.  None   
# … with 150 more rows, 9 more variables: dots_keyboard_response.keys <chr>,
#   dots_keyboard_response.started <dbl>, dots_keyboard_response.stopped <chr>,
#   dots_keyboard_response.rt <dbl>, Pseudonym <chr>, date <chr>,
#   expName <chr>, psychopyVersion <chr>, frameRate <dbl>, and abbreviated
#   variable names ¹​direction, ²​main_blocks_loop.thisRepN,
#   ³​main_blocks_loop.thisTrialN, ⁴​main_blocks_loop.thisN,
#   ⁵​main_blocks_loop.thisIndex, ⁶​dots_background.started, …
Variablen umbenennen

Nun wollen Variablen identifizieren, die uns interessieren. Diese wollen wir umbenennen.

testdata <- testdata |>
    select(trial = main_blocks_loop.thisN,
           ID = Pseudonym,
           cue,
           direction,
           response = dots_keyboard_response.keys,
           rt = dots_keyboard_response.rt)

testdata

# A tibble: 160 × 6
   trial ID    cue   direction response    rt
   <dbl> <chr> <chr> <chr>     <chr>    <dbl>
 1     0 ZZ    right right     j        0.714
 2     1 ZZ    right right     j        0.627
 3     2 ZZ    none  right     f        0.670
 4     3 ZZ    none  right     j        0.574
 5     4 ZZ    left  left      j        0.841
 6     5 ZZ    none  right     j        0.668
 7     6 ZZ    none  left      j        1.12 
 8     7 ZZ    left  left      f        0.640
 9     8 ZZ    left  right     f        1.13 
10     9 ZZ    none  right     j        1.03 
# … with 150 more rows
…
