Neurowissenschaft Computerlab - Daten importieren: Teil 2
…
Daten überprüfen

Wir überprüfen, ob die Daten korrekt sind. Dazu schauen wir uns die Anzahl der Trials pro Person und pro Bedingung an. Sie können mehr Zeilen anzeigen, indem sie n = in der Funktion slice_head() ändern.

data |> 
  group_by(ID, condition) |>
  summarise(n_trials = n()) |>
  slice_head(n = 20)

`summarise()` has grouped output by 'ID'. You can override using the `.groups`
argument.

# A tibble: 27 × 3
# Groups:   ID [9]
   ID    condition n_trials
   <fct> <fct>        <int>
 1 JH    valid           64
 2 JH    neutral         80
 3 JH    invalid         16
 4 NS    valid           64
 5 NS    neutral         80
 6 NS    invalid         16
 7 rh    valid           64
 8 rh    neutral         80
 9 rh    invalid         16
10 sb    valid           64
# … with 17 more rows
…
Nun berechnen wir pro Person und pro Bedingung die Anzahl der korrekten Antworten und die Accuracy. Die Accuracy ist die Anzahl der korrekten Antworten geteilt durch die Anzahl der Trials.

accuracy <- data |>
    group_by(ID, condition) |>
    summarise(N = n(),
              ncorrect = sum(correct),
              accuracy = mean(correct))

`summarise()` has grouped output by 'ID'. You can override using the `.groups`
argument.

accuracy

# A tibble: 27 × 5
# Groups:   ID [9]
   ID    condition     N ncorrect accuracy
   <fct> <fct>     <int>    <dbl>    <dbl>
 1 JH    valid        64       60    0.938
 2 JH    neutral      80       66    0.825
 3 JH    invalid      16       13    0.812
 4 NS    valid        64       58    0.906
 5 NS    neutral      80       56    0.7  
 6 NS    invalid      16       11    0.688
 7 rh    valid        64       61    0.953
 8 rh    neutral      80       64    0.8  
 9 rh    invalid      16        2    0.125
10 sb    valid        64       62    0.969
# … with 17 more rows
…
