Neurowissenschaft Computerlab - Deskriptive Statistik
…
Was sagen uns diese Kennzahlen? Welche Informationen gehen dabei verloren?

Pro Versuchsperson

accuracy <- data |>
    group_by(ID, condition) |>
    summarise(N = n(),
              ncorrect = sum(correct),
              accuracy = mean(correct),
              se = se(correct))

accuracy

# A tibble: 27 × 6
# Groups:   ID [9]
   ID    condition     N ncorrect accuracy     se
   <fct> <fct>     <int>    <dbl>    <dbl>  <dbl>
 1 JH    valid        64       60    0.938 0.0305
 2 JH    neutral      80       66    0.825 0.0427
 3 JH    invalid      16       13    0.812 0.101 
 4 NS    valid        64       58    0.906 0.0367
 5 NS    neutral      80       56    0.7   0.0516
 6 NS    invalid      16       11    0.688 0.120 
 7 rh    valid        64       61    0.953 0.0266
 8 rh    neutral      80       64    0.8   0.0450
 9 rh    invalid      16        2    0.125 0.0854
10 sb    valid        64       62    0.969 0.0219
# … with 17 more rows
…
Pro Versuchsperson

Wir fassen die Daten pro Person pro Block mit Mittelwert, Median und Standarabweichung zusammen.

funs <- list(mean = mean, median = median, sd = sd)

by_subj <- data %>%
  drop_na(rt) |> 
  group_by(ID, condition) %>% 
  dplyr::summarise(across(rt, funs, .names = "{.fn}"))

by_subj 

# A tibble: 27 × 5
# Groups:   ID [9]
   ID    condition  mean median     sd
   <fct> <fct>     <dbl>  <dbl>  <dbl>
 1 JH    valid     0.696  0.658 0.190 
 2 JH    neutral   0.799  0.733 0.202 
 3 JH    invalid   0.775  0.739 0.163 
 4 NS    valid     0.738  0.715 0.191 
 5 NS    neutral   0.885  0.844 0.201 
 6 NS    invalid   0.894  0.913 0.207 
 7 rh    valid     0.443  0.390 0.185 
 8 rh    neutral   0.525  0.503 0.0841
 9 rh    invalid   0.423  0.389 0.151 
10 sb    valid     0.386  0.349 0.175 
# … with 17 more rows
…
